{
  "project_info": {
    "project_number": "213156938039",
    "project_id": "mymessenger-50690",
    "storage_bucket": "mymessenger-50690.appspot.com"
  },
  "client": [
    {
      "client_info": {
        "mobilesdk_app_id": "1:213156938039:android:0d22942c985983d7529ab2",
        "android_client_info": {
          "package_name": "hr.mato.marinic.mymessenger"
        }
      },
      "oauth_client": [
        {
          "client_id": "213156938039-cnotap5i3k6387iggeq89eqnu89bk0ka.apps.googleusercontent.com",
          "client_type": 3
        }
      ],
      "api_key": [
        {
          "current_key": "AIzaSyAx3G4PdDXdHjyCxOnHk-kFldVqzcj_TnQ"
        }
      ],
      "services": {
        "appinvite_service": {
          "other_platform_oauth_client": [
            {
              "client_id": "213156938039-cnotap5i3k6387iggeq89eqnu89bk0ka.apps.googleusercontent.com",
              "client_type": 3
            }
          ]
        }
      }
    }
  ],
  "configuration_version": "1"
}